<?xml version="1.0" encoding="utf-8"?>
<!-- Generator: Adobe Illustrator 23.0.0, SVG Export Plug-In . SVG Version: 6.00 Build 0)  -->
<svg version="1.1" id="Capa_1" xmlns="http://www.w3.org/2000/svg" xmlns:xlink="http://www.w3.org/1999/xlink" x="0px" y="0px"
	 width="10.1px" height="6.9px" viewBox="0 0 10.1 6.9" style="enable-background:new 0 0 10.1 6.9;" xml:space="preserve">
<style type="text/css">
	.st0{fill:#FF5500;}
</style>
<g>
	<path class="st0" d="M4.5,6.6L0.2,1.4c-0.3-0.3-0.3-0.9,0-1.2s0.7-0.3,1,0L5,4.8l3.8-4.6c0.3-0.3,0.7-0.3,1,0
		c0.3,0.3,0.3,0.9,0,1.2L5.5,6.7C5.4,6.8,5.2,6.9,5,6.9S4.6,6.8,4.5,6.6z"/>
</g>
</svg>
