<?xml version="1.0" encoding="utf-8"?>
<!-- Generator: Adobe Illustrator 23.0.0, SVG Export Plug-In . SVG Version: 6.00 Build 0)  -->
<svg version="1.1" id="Capa_1" xmlns="http://www.w3.org/2000/svg" xmlns:xlink="http://www.w3.org/1999/xlink" x="0px" y="0px"
	 width="7px" height="10px" viewBox="0 0 7 10" style="enable-background:new 0 0 7 10;" xml:space="preserve">
<style type="text/css">
	.st0{fill:#FF5500;}
</style>
<g>
	<path class="st0" d="M6.7,5.5L1.5,9.8c-0.3,0.3-0.9,0.3-1.2,0c-0.3-0.3-0.3-0.7,0-1L4.9,5L0.3,1.2c-0.3-0.3-0.3-0.7,0-1
		c0.3-0.3,0.9-0.3,1.2,0l5.3,4.3C6.9,4.6,7,4.8,7,5C7,5.2,6.9,5.4,6.7,5.5z"/>
</g>
</svg>
