<?xml version="1.0" encoding="utf-8"?>
<!-- Generator: Adobe Illustrator 23.0.0, SVG Export Plug-In . SVG Version: 6.00 Build 0)  -->
<svg version="1.1" id="Layer_1" xmlns="http://www.w3.org/2000/svg" xmlns:xlink="http://www.w3.org/1999/xlink" x="0px" y="0px"
	 width="501.6px" height="108.9px" viewBox="0 0 501.6 108.9" style="enable-background:new 0 0 501.6 108.9;" xml:space="preserve"
	>
<style type="text/css">
	.st0{fill:#FF5500;}
	.st1{fill:#FFFFFF;}
</style>
<g>
	<ellipse transform="matrix(0.1895 -0.9819 0.9819 0.1895 26.6718 77.9385)" class="st0" cx="60.5" cy="22.8" rx="22" ry="14.4"/>
	<ellipse transform="matrix(0.8025 -0.5967 0.5967 0.8025 -13.6723 26.6544)" class="st0" cx="33.4" cy="34" rx="8.8" ry="13.4"/>
	<ellipse transform="matrix(0.673 -0.7396 0.7396 0.673 -30.4675 27.5254)" class="st0" cx="15.9" cy="48.2" rx="7.3" ry="11.2"/>
	<ellipse transform="matrix(0.1884 -0.9821 0.9821 0.1884 -56.7227 62.9708)" class="st0" cx="9.7" cy="65.8" rx="5.8" ry="8.8"/>
	<path class="st0" d="M12,77.9c-3,2.1-4.4,5.4-3.1,7.3c1.4,2,4.9,1.9,8-0.1c3-2.1,4.4-5.4,3.1-7.3C18.6,75.8,15,75.9,12,77.9z"/>
	<path class="st0" d="M50.6,48.3c-14.6,0-26.4,11.8-26.4,26.3c0,0.3,0,0.6,0,1c0,0.3,0,0.5,0,0.8c0,4.1,1.2,8,3.4,11.2
		c0.7,1,1.5,2,2.4,2.9c3.6,3.7,8.7,6,14.3,6c11.1,0,20.1-9,20.1-20.1c0-7.8-4.5-14.6-11.1-17.9c9.6,2.2,16.7,10.7,16.7,21
		c0,11.5-9.1,21-20.5,21.5c0.4,0,0.7,0,1.1,0C65.2,101,77,89.2,77,74.7C77,60.1,65.2,48.3,50.6,48.3z"/>
</g>
<g>
	<path class="st1" d="M135.3,62v13.4l-8.4,8.4H99V32.6h27.9l6.9,6.9v13.8L129,57L135.3,62z M107.2,53.4h15.4l2.9-2.2v-8.7l-2.2-2.2
		h-16.1C107.2,40.3,107.2,53.4,107.2,53.4z M122.3,60.9h-15v15.3h16.2l3.6-3.6v-8L122.3,60.9z"/>
	<path class="st1" d="M172.7,32.6l9.1,8.3v34.6l-9.1,8.3h-20.4l-9.1-8.3V40.9l9.1-8.3C152.3,32.6,172.7,32.6,172.7,32.6z
		 M169.4,40.2h-13.8l-4.1,3.8v28.4l4.1,3.7h13.8l4.1-3.8V44L169.4,40.2z"/>
	<path class="st1" d="M219.9,32.6l9.1,8.3v34.6l-9.1,8.3h-20.4l-9.1-8.3V40.9l9.1-8.3C199.5,32.6,219.9,32.6,219.9,32.6z
		 M216.5,40.2h-13.8l-4.1,3.8v28.4l4.1,3.7h13.8l4.1-3.8V44L216.5,40.2z"/>
	<path class="st1" d="M255.3,83.7H247V40.2h-14.5v-7.6h37.4v7.6h-14.5L255.3,83.7L255.3,83.7z"/>
	<path class="st1" d="M275.6,32.6h32.6v7.6h-24.3V55h21.3v7.6h-21.3v21.2h-8.3L275.6,32.6L275.6,32.6z"/>
	<path class="st1" d="M312.6,83.7v-7.6h7.3v-36h-7.3v-7.6h22.8v7.6h-7.3v36h7.3v7.6H312.6z"/>
	<path class="st1" d="M361.8,83.7h-8.3V40.2H339v-7.6h37.4v7.6h-14.5v43.5H361.8z"/>
	<path class="st1" d="M401.4,83.7h-8.3V40.2h-14.5v-7.6H416v7.6h-14.5v43.5H401.4z"/>
	<path class="st1" d="M421.7,32.6h32.6v7.6H430v13.1h21.3v7.6H430v15.3h24.3v7.6h-32.6V32.6z"/>
	<path class="st1" d="M498.7,79.7l-6,5.5L473.4,64h-3.6v19.7h-8.3V32.6H490l7.8,7.8v15.8L490,64h-4.8l-1.7-0.7l-0.1,0.2l1.7,1.3
		L498.7,79.7z M469.8,40.2v16.3h16.3l3.5-3.4v-9.5l-3.5-3.4C486.1,40.2,469.8,40.2,469.8,40.2z"/>
</g>
</svg>
