<?xml version="1.0" encoding="utf-8"?>
<!-- Generator: Adobe Illustrator 23.0.0, SVG Export Plug-In . SVG Version: 6.00 Build 0)  -->
<svg version="1.1" id="Layer_1" xmlns="http://www.w3.org/2000/svg" xmlns:xlink="http://www.w3.org/1999/xlink" x="0px" y="0px"
	 viewBox="0 0 569.4 681.6" style="enable-background:new 0 0 569.4 681.6;" xml:space="preserve">
<style type="text/css">
	.st0{fill:#FF5500;}
</style>
<g>
	
		<image style="overflow:visible;opacity:0.35;" width="552" height="692" xlink:href="CA87E398.png"  transform="matrix(1 0 0 1 8.7059 24.8235)">
	</image>
	<g>
		<g>
			<g>
				<path class="st0" d="M284.7,84.8C182.5,84.8,99.3,168,99.3,270.2c0,126.9,165.9,313.2,173,321c6.6,7.4,18.2,7.4,24.8,0
					c7.1-7.9,173-194.1,173-321C470.1,168,386.9,84.8,284.7,84.8z M284.7,363.5c-51.4,0-93.3-41.9-93.3-93.3s41.9-93.3,93.3-93.3
					s93.3,41.9,93.3,93.3S336.1,363.5,284.7,363.5z"/>
			</g>
		</g>
	</g>
</g>
</svg>
