<?xml version="1.0" encoding="utf-8"?>
<!-- Generator: Adobe Illustrator 23.0.0, SVG Export Plug-In . SVG Version: 6.00 Build 0)  -->
<svg version="1.1" id="Слой_1" xmlns="http://www.w3.org/2000/svg" xmlns:xlink="http://www.w3.org/1999/xlink" x="0px" y="0px"
	 width="99px" height="100px" viewBox="0 0 99 100" style="enable-background:new 0 0 99 100;" xml:space="preserve">
<style type="text/css">
	.st0{fill:#F2F2F2;}
</style>
<path class="st0" d="M32.4,100c-0.9,0-1.7-0.8-1.7-1.7V1.7c0-0.9,0.8-1.7,1.7-1.7s1.7,0.8,1.7,1.7v96.6C34.1,99.2,33.4,100,32.4,100
	z"/>
<path class="st0" d="M66.6,100c-0.9,0-1.7-0.8-1.7-1.7V55c0-0.9,0.8-1.7,1.7-1.7s1.7,0.8,1.7,1.7v43.3C68.3,99.2,67.5,100,66.6,100z
	"/>
<path class="st0" d="M66.6,11.1c-0.9,0-1.7-0.8-1.7-1.7V1.7c0-0.9,0.8-1.7,1.7-1.7s1.7,0.8,1.7,1.7v7.7
	C68.3,10.3,67.5,11.1,66.6,11.1z"/>
<path class="st0" d="M97.3,67.8H1.7C0.8,67.8,0,67,0,66.1c0-0.9,0.8-1.7,1.7-1.7h95.6c0.9,0,1.7,0.8,1.7,1.7
	C99,67,98.2,67.8,97.3,67.8z"/>
<path class="st0" d="M50.6,33.9H1.7c-0.9,0-1.7-0.8-1.7-1.7s0.8-1.7,1.7-1.7h48.9c0.9,0,1.7,0.8,1.7,1.7S51.6,33.9,50.6,33.9z"/>
<path class="st0" d="M97.3,33.9H83.2c-0.9,0-1.7-0.8-1.7-1.7s0.8-1.7,1.7-1.7h14.1c0.9,0,1.7,0.8,1.7,1.7S98.2,33.9,97.3,33.9z"/>
<path class="st0" d="M66.6,57.6c-0.5,0-1-0.2-1.3-0.6c-0.7-0.8-17.5-20-17.5-29.9c0-10.3,8.4-18.6,18.8-18.6
	c10.4,0,18.8,8.4,18.8,18.6c0,9.9-16.8,29.1-17.5,29.9C67.5,57.4,67.1,57.6,66.6,57.6z M66.6,11.9c-8.5,0-15.4,6.8-15.4,15.3
	c0,6.6,10.1,20,15.4,26.2c5.2-6.2,15.4-19.6,15.4-26.2C81.9,18.7,75,11.9,66.6,11.9z"/>
<path class="st0" d="M66.6,37.3c-5.6,0-10.2-4.6-10.2-10.2s4.6-10.2,10.2-10.2s10.2,4.6,10.2,10.2S72.2,37.3,66.6,37.3z M66.6,20.3
	c-3.8,0-6.8,3-6.8,6.8s3.1,6.8,6.8,6.8c3.8,0,6.8-3,6.8-6.8S70.3,20.3,66.6,20.3z"/>
</svg>
